Problem Session 3
…
They never changes the type of the inputs (e.g. never converts strings to factors!)

They never changes the names of variables

They never create row names.

Let’s look at the differences in the output when we type flights (tibble) in the console versus typing mtcars (data frame) in the console.

You can coerce a regular data frame to a tibble with as_tibble(). Let’s use as_tibble() on the mtcars data set. Save this new data set as mtcars_tibble. Check your environment to see if it worked!

mtcars_tibble <- as_tibble(mtcars, rownames = "car_names")
mtcars_tibble

# A tibble: 32 × 12
   car_names     mpg   cyl  disp    hp  drat    wt  qsec    vs    am  gear  carb
   <chr>       <dbl> <dbl> <dbl> <dbl> <dbl> <dbl> <dbl> <dbl> <dbl> <dbl> <dbl>
 1 Mazda RX4    21       6  160    110  3.9   2.62  16.5     0     1     4     4
 2 Mazda RX4 …  21       6  160    110  3.9   2.88  17.0     0     1     4     4
 3 Datsun 710   22.8     4  108     93  3.85  2.32  18.6     1     1     4     1
 4 Hornet 4 D…  21.4     6  258    110  3.08  3.22  19.4     1     0     3     1
 5 Hornet Spo…  18.7     8  360    175  3.15  3.44  17.0     0     0     3     2
 6 Valiant      18.1     6  225    105  2.76  3.46  20.2     1     0     3     1
 7 Duster 360   14.3     8  360    245  3.21  3.57  15.8     0     0     3     4
 8 Merc 240D    24.4     4  147.    62  3.69  3.19  20       1     0     4     2
 9 Merc 230     22.8     4  141.    95  3.92  3.15  22.9     1     0     4     2
10 Merc 280     19.2     6  168.   123  3.92  3.44  18.3     1     0     4     4
# ℹ 22 more rows
…
2.1 select() — Choosing Columns

Question 1 (Warm-up)

Select only the carrier, origin, dest, and air_time columns from flights.

flights |>
  select(carrier, origin, dest, air_time)

# A tibble: 336,776 × 4
   carrier origin dest  air_time
   <chr>   <chr>  <chr>    <dbl>
 1 UA      EWR    IAH        227
 2 UA      LGA    IAH        227
 3 AA      JFK    MIA        160
 4 B6      JFK    BQN        183
 5 DL      LGA    ATL        116
 6 UA      EWR    ORD        150
 7 B6      EWR    FLL        158
 8 EV      LGA    IAD         53
 9 B6      JFK    MCO        140
10 AA      LGA    ORD        138
# ℹ 336,766 more rows

Question 2

Make a data frame that keeps every variable except dep_delay. Call the new data frame new.data.

new.data <- flights |>
  select(-dep_delay)

new.data

# A tibble: 336,776 × 18
    year month   day dep_time sched_dep_time arr_time sched_arr_time arr_delay
   <int> <int> <int>    <int>          <int>    <int>          <int>     <dbl>
 1  2013     1     1      517            515      830            819        11
 2  2013     1     1      533            529      850            830        20
 3  2013     1     1      542            540      923            850        33
 4  2013     1     1      544            545     1004           1022       -18
 5  2013     1     1      554            600      812            837       -25
 6  2013     1     1      554            558      740            728        12
 7  2013     1     1      555            600      913            854        19
 8  2013     1     1      557            600      709            723       -14
 9  2013     1     1      557            600      838            846        -8
10  2013     1     1      558            600      753            745         8
# ℹ 336,766 more rows
# ℹ 10 more variables: carrier <chr>, flight <int>, tailnum <chr>,
#   origin <chr>, dest <chr>, air_time <dbl>, distance <dbl>, hour <dbl>,
#   minute <dbl>, time_hour <dttm>

Question 3

Use select() with a range (:) to keep all columns from year through arr_delay (inclusive). These are the scheduling and delay variables.

flights |>
  select(year:arr_delay)

# A tibble: 336,776 × 9
    year month   day dep_time sched_dep_time dep_delay arr_time sched_arr_time
   <int> <int> <int>    <int>          <int>     <dbl>    <int>          <int>
 1  2013     1     1      517            515         2      830            819
 2  2013     1     1      533            529         4      850            830
 3  2013     1     1      542            540         2      923            850
 4  2013     1     1      544            545        -1     1004           1022
 5  2013     1     1      554            600        -6      812            837
 6  2013     1     1      554            558        -4      740            728
 7  2013     1     1      555            600        -5      913            854
 8  2013     1     1      557            600        -3      709            723
 9  2013     1     1      557            600        -3      838            846
10  2013     1     1      558            600        -2      753            745
# ℹ 336,766 more rows
# ℹ 1 more variable: arr_delay <dbl>

Question 4

Use select() with the contains() helper to keep only columns whose name includes the string "dep_". What columns do you get?

flights |>
  select(contains("dep_"))

# A tibble: 336,776 × 3
   dep_time sched_dep_time dep_delay
      <int>          <int>     <dbl>
 1      517            515         2
 2      533            529         4
 3      542            540         2
 4      544            545        -1
 5      554            600        -6
 6      554            558        -4
 7      555            600        -5
 8      557            600        -3
 9      557            600        -3
10      558            600        -2
# ℹ 336,766 more rows

2.2 filter() — Choosing Rows

Question 5

Filter flights to only include flights that departed from JFK airport.

flights |>
  filter(origin == "JFK")

# A tibble: 111,279 × 19
    year month   day dep_time sched_dep_time dep_delay arr_time sched_arr_time
   <int> <int> <int>    <int>          <int>     <dbl>    <int>          <int>
 1  2013     1     1      542            540         2      923            850
 2  2013     1     1      544            545        -1     1004           1022
 3  2013     1     1      557            600        -3      838            846
 4  2013     1     1      558            600        -2      849            851
 5  2013     1     1      558            600        -2      853            856
 6  2013     1     1      558            600        -2      924            917
 7  2013     1     1      559            559         0      702            706
 8  2013     1     1      606            610        -4      837            845
 9  2013     1     1      611            600        11      945            931
10  2013     1     1      613            610         3      925            921
# ℹ 111,269 more rows
# ℹ 11 more variables: arr_delay <dbl>, carrier <chr>, flight <int>,
#   tailnum <chr>, origin <chr>, dest <chr>, air_time <dbl>, distance <dbl>,
#   hour <dbl>, minute <dbl>, time_hour <dttm>

Question 6

What if we want to look at destinations of RDU and JFK that had a departure delay greater than 60 minutes? Write the code below to do this…

flights |>
  filter(origin %in% c("RDU", "JFK"), dep_delay > 60)

# A tibble: 8,401 × 19
    year month   day dep_time sched_dep_time dep_delay arr_time sched_arr_time
   <int> <int> <int>    <int>          <int>     <dbl>    <int>          <int>
 1  2013     1     1      826            715        71     1136           1045
 2  2013     1     1      848           1835       853     1001           1950
 3  2013     1     1     1337           1220        77     1649           1531
 4  2013     1     1     1540           1338       122     2020           1825
 5  2013     1     1     1558           1359       119     1718           1515
 6  2013     1     1     1627           1459        88     1925           1805
 7  2013     1     1     1716           1545        91     2140           2039
 8  2013     1     1     1743           1615        88     1925           1819
 9  2013     1     1     1848           1745        63     2238           2120
10  2013     1     1     1856           1645       131     2212           2005
# ℹ 8,391 more rows
# ℹ 11 more variables: arr_delay <dbl>, carrier <chr>, flight <int>,
#   tailnum <chr>, origin <chr>, dest <chr>, air_time <dbl>, distance <dbl>,
#   hour <dbl>, minute <dbl>, time_hour <dttm>

flights |>
  filter(origin == c("RDU", "JFK"), dep_delay > 60)

# A tibble: 4,185 × 19
    year month   day dep_time sched_dep_time dep_delay arr_time sched_arr_time
   <int> <int> <int>    <int>          <int>     <dbl>    <int>          <int>
 1  2013     1     1      826            715        71     1136           1045
 2  2013     1     1      848           1835       853     1001           1950
 3  2013     1     1     1337           1220        77     1649           1531
 4  2013     1     1     1540           1338       122     2020           1825
 5  2013     1     1     1716           1545        91     2140           2039
 6  2013     1     1     1743           1615        88     1925           1819
 7  2013     1     1     1856           1645       131     2212           2005
 8  2013     1     1     1934           1725       129     2126           1855
 9  2013     1     1     1942           1705       157     2124           1830
10  2013     1     1     2115           1700       255     2330           1920
# ℹ 4,175 more rows
# ℹ 11 more variables: arr_delay <dbl>, carrier <chr>, flight <int>,
#   tailnum <chr>, origin <chr>, dest <chr>, air_time <dbl>, distance <dbl>,
#   hour <dbl>, minute <dbl>, time_hour <dttm>
Why c?

What happens if we change %in% to == ?

2.3 arrange() — Sorting Rows

Question 7

Arrange the flights data by dep_delay in descending order so the most delayed flights appear at the top. What is the longest departure delay, and what carrier operated that flight?

flights |>
  arrange(desc(dep_delay)) |>
  select(carrier, flight, dep_delay)

# A tibble: 336,776 × 3
   carrier flight dep_delay
   <chr>    <int>     <dbl>
 1 HA          51      1301
 2 MQ        3535      1137
 3 MQ        3695      1126
 4 AA         177      1014
 5 MQ        3075      1005
 6 DL        2391       960
 7 DL        2119       911
 8 DL        2007       899
 9 DL        2047       898
10 AA         172       896
# ℹ 336,766 more rows
…
Keeps only flights to RDU.

Arranges them by departure delay (largest first).

Selects only tailnum, carrier, dep_delay, and arr_delay.

What is the tail number of the most delayed flight to RDU?

flights |>
  filter(dest == "RDU") |>
  arrange(desc(dep_delay)) |>
  select(tailnum, carrier, dep_delay, arr_delay)

# A tibble: 8,163 × 4
   tailnum carrier dep_delay arr_delay
   <chr>   <chr>       <dbl>     <dbl>
 1 N14558  EV            420       415
 2 N16183  EV            398       389
 3 N239JB  B6            394       391
 4 N738MQ  MQ            366       354
 5 N239JB  B6            356       350
 6 N804MQ  MQ            343       430
 7 N13161  EV            313       315
 8 N283JB  B6            309       294
 9 N617MQ  MQ            309       305
10 N238JB  B6            297       314
# ℹ 8,153 more rows

2.5 mutate() — Creating New Variables

Question 9

Create a new variable speed_mph that gives the average speed of each flight in miles per hour. Recall that air_time is in minutes and distance is in miles. Keep only flight, carrier, distance, air_time, and speed_mph.

flights |>
  mutate(speed_mph = distance/ (air_time/60)) |>
  select(flight, carrier, distance, air_time, speed_mph)

# A tibble: 336,776 × 5
   flight carrier distance air_time speed_mph
    <int> <chr>      <dbl>    <dbl>     <dbl>
 1   1545 UA          1400      227      370.
 2   1714 UA          1416      227      374.
 3   1141 AA          1089      160      408.
 4    725 B6          1576      183      517.
 5    461 DL           762      116      394.
 6   1696 UA           719      150      288.
 7    507 B6          1065      158      404.
 8   5708 EV           229       53      259.
 9     79 B6           944      140      405.
10    301 AA           733      138      319.
# ℹ 336,766 more rows
…
Part 3: Reshaping Data with tidyr

For this section we’ll build a small summary tibble from flights and then practice reshaping it.

# Build a mean arrival delay table by carrier and month (first 3 months)
delay_summary <- flights |>
  filter(month %in% 1:3) |>
  group_by(carrier, month) |>
  summarise(mean_arr_delay = round(mean(arr_delay, na.rm = TRUE), 1),
            .groups = "drop")

delay_summary

# A tibble: 46 × 3
   carrier month mean_arr_delay
   <chr>   <int>          <dbl>
 1 9E          1           10.2
 2 9E          2            8.3
 3 9E          3            2  
 4 AA          1            1  
 5 AA          2            1.1
 6 AA          3           -3  
 7 AS          1            9  
 8 AS          2          -12.7
 9 AS          3           -4.8
10 B6          1            4.7
# ℹ 36 more rows
…
Question 14

Take delay_wide and pivot it back to long format so that we have columns carrier, month, and mean_arr_delay. The result should match the original delay_summary.

delay_wide |>
  pivot_longer(
    cols = starts_with("month_"),
    names_to = "month", 
    values_to = "mean_arr_delay",
    names_prefix = "month_",
    names_transform = list(month = as.integer)
  )

# A tibble: 48 × 3
   carrier month mean_arr_delay
   <chr>   <int>          <dbl>
 1 9E          1           10.2
 2 9E          2            8.3
 3 9E          3            2  
 4 AA          1            1  
 5 AA          2            1.1
 6 AA          3           -3  
 7 AS          1            9  
 8 AS          2          -12.7
 9 AS          3           -4.8
10 B6          1            4.7
# ℹ 38 more rows
…
