Problem Session 5
…
scale_numeric_cols <- function(.df){
  if(!inherits(.df, "data.frame")) {
    stop("Input must be a data frame or a tibble")
  }
  
  .df |>
    mutate(across(where(is.numeric), \(x) (x - mean(x, na.rm = T))/ sd(x, na.rm = T)))
}

Test it:

penguins |>
  scale_numeric_cols()

# A tibble: 344 × 8
   species island    bill_length_mm bill_depth_mm flipper_length_mm body_mass_g
   <fct>   <fct>              <dbl>         <dbl>             <dbl>       <dbl>
 1 Adelie  Torgersen         -0.883         0.784            -1.42      -0.563 
 2 Adelie  Torgersen         -0.810         0.126            -1.06      -0.501 
 3 Adelie  Torgersen         -0.663         0.430            -0.421     -1.19  
 4 Adelie  Torgersen         NA            NA                NA         NA     
 5 Adelie  Torgersen         -1.32          1.09             -0.563     -0.937 
 6 Adelie  Torgersen         -0.847         1.75             -0.776     -0.688 
 7 Adelie  Torgersen         -0.920         0.329            -1.42      -0.719 
 8 Adelie  Torgersen         -0.865         1.24             -0.421      0.590 
 9 Adelie  Torgersen         -1.80          0.480            -0.563     -0.906 
10 Adelie  Torgersen         -0.352         1.54             -0.776      0.0602
# ℹ 334 more rows
# ℹ 2 more variables: sex <fct>, year <dbl>
…
